{
    "defaultVars": {
        "backgroundBlur": "10px",
        "colorPrimary": "#ff6064",
        "app-color": "#ff6064",
        "backgroundColorTransparency": "0.8",
        "backgroundImage": "",
        "fontFamily": "'Inter', sans-serif",
        "layoutMargin": "unset",
        "layoutPadding": "20px",
        "borderRadius": "8px",
        "text-color-white": "#d2d2d2",
        "text-color-black": "#000000",
        "page-transition-duration": "150ms",
        "backgroundSize": "cover",
        "backgroundPosition": "center",
        "backgroundRepeat": "no-repeat",
        "backgroundAttachment": "fixed",
        "compact-mode": false
    },
    "defaultVariant": "dark",
    "variants": {
        "light": {
            "bg_color_1": "255, 255, 255",
            "bg_color_2": "200, 200, 200",
            "bg_color_3": "150, 150, 150",
            "bg_color_4": "100, 100, 100",
            "bg_color_5": "45, 45, 45",
            "bg_color_6": "0, 0, 0",
            "text-color": "var(--text-color-black)",
            "svg-color": "var(--text-color)",
            "disabled-color": "#d2d2d2",
            "layoutBackgroundColor": "255, 255, 255",
            "layout-background-contrast": "38, 38, 38",
            "background-color-primary": "#ffffff",
            "background-color-primary-2": "#f0f0f0",
            "shadow-color": "#4b4b4b7c",
            "background-color-accent-values": "240, 242, 245",
            "background-color-accent": "#f0f2f5",
            "background-color-contrast": "#4b4b4b",
            "border-color": "rgba(75, 75, 75, 0.2)",
            "sidebar-background-color": "var(--background-color-accent)",
            "sidedrawer-background-color": "var(--background-color-accent)"
        },
        "dark": {
            "bg_color_1": "38, 38, 38",
            "bg_color_2": "65, 65, 65",
            "bg_color_3": "90, 90, 90",
            "bg_color_4": "115, 115, 115",
            "bg_color_5": "140, 140, 140",
            "bg_color_6": "165, 165, 165",
            "text-color": "var(--text-color-white)",
            "svg-color": "var(--text-color)",
            "disabled-color": "#4b4b4b",
            "shadow-color": "#1010107c",
            "layoutBackgroundColor": "38, 38, 38",
            "layout-background-contrast": "255, 255, 255",
            "background-color-primary": "#262626",
            "background-color-primary-2": "#2c2c2c",
            "background-color-accent-values": "53, 53, 53",
            "background-color-accent": "#353535",
            "background-color-contrast": "#ffffff",
            "background_disabled": "#0A0A0A",
            "border-color": "rgba(170, 170, 170, 0.2)",
            "header-text-color": "#d2d2d2",
            "button-background-color": "var(--colorPrimary)",
            "button-text-color": "var(--background-color-contrast)",
            "sidebar-background-color": "var(--background-color-accent)",
            "sidedrawer-background-color": "var(--background-color-accent)"
        }
    }
}