{
    "forceMobileMode": false,
    "ui.effects": true,
    "ui.general_volume": 50,
    "notifications_sound": true,
    "notifications_vibrate": true,
    "notifications_sound_volume": 50,
    "longPressDelay": 600,
    "autoCollapseDelay": 500,
    "autoCollapseDelayEnabled": true,
    "haptic_feedback": false,
    "collapseOnLooseFocus": true,
    "style.auto_darkMode": true,
    "feed_max_fetch": 20,
    "style.compactMode": false,
    "sidebar.floating": false,
    "player.compressor": false,
    "language": "en"
}