{
    "appId": "com.ragestudio.comty",
    "appName": "Comty",
    "bundledWebRuntime": true,
    "overrideUserAgent": "capacitor",
    "webDir": "dist",
    "plugins": {
        "CapacitorUpdater": {
            "updateUrl": "https://relic.ragestudio.net/comty/update_check"
        }
    }
}